C:\repos\crm1\spring-crm-rest-demo\src\main\java\com\luv2code\springdemo\dao\CustomerDAO.java
C:\repos\crm1\spring-crm-rest-demo\src\main\java\com\luv2code\springdemo\service\CustomerService.java
C:\repos\crm1\spring-crm-rest-demo\src\main\java\com\luv2code\springdemo\rest\CustomerErrorResponse.java
C:\repos\crm1\spring-crm-rest-demo\src\main\java\com\luv2code\springdemo\dao\CustomerDAOImpl.java
C:\repos\crm1\spring-crm-rest-demo\src\main\java\com\luv2code\springdemo\rest\CustomerRestController.java
C:\repos\crm1\spring-crm-rest-demo\src\main\java\com\luv2code\springdemo\config\DemoAppConfig.java
C:\repos\crm1\spring-crm-rest-demo\src\main\java\com\luv2code\springdemo\config\MySpringMvcDispatcherServletInitializer.java
C:\repos\crm1\spring-crm-rest-demo\src\main\java\com\luv2code\springdemo\entity\Customer.java
C:\repos\crm1\spring-crm-rest-demo\src\main\java\com\luv2code\springdemo\rest\CustomerNotFoundException.java
C:\repos\crm1\spring-crm-rest-demo\src\main\java\com\luv2code\springdemo\rest\CustomerRestExceptionHandler.java
C:\repos\crm1\spring-crm-rest-demo\src\main\java\com\luv2code\springdemo\service\CustomerServiceImpl.java
